<svg xmlns="http://www.w3.org/2000/svg" width="512" height="512" class="fill-current">
  <path d="M353.982 77.822l-33.953 33.953-21.078-21.078c-17.006-17.006-46.682-16.977-63.629 0l-6.548 6.533c-73.912-19.804-153.734 8.817-197.838 73.106-40.354 58.81-41.307 138.273-2.402 197.757 64.464 98.479 201.098 110.099 281.023 30.173 45.759-45.759 63.16-111.599 46.491-173.764l6.533-6.533c17.548-17.548 17.548-46.096 0-63.643l-21.342-21.342 33.953-33.953c17.222-17.222 46.813-4.876 46.813 19.394v197.566c0 8.291 6.709 14.999 14.999 14.999 8.29 0 14.999-6.709 14.999-14.999V118.424c0-50.822-61.946-76.678-98.021-40.602zM103.838 318.819c4.541 6.929 2.593 16.229-4.351 20.756-6.839 4.493-16.197 2.651-20.756-4.351-25.34-38.729-24.637-92.588 1.685-130.949 4.702-6.841 14.032-8.555 20.844-3.882 6.841 4.688 8.569 14.018 3.882 20.844-19.628 28.621-20.155 68.74-1.304 97.582zM437.005 360.988c-8.291 0-14.999 6.709-14.999 14.999v29.998c0 8.291 6.709 14.999 14.999 14.999 8.29 0 14.999-6.709 14.999-14.999v-29.998c0-8.29-6.708-14.999-14.999-14.999zM507.606 365.383l-21.21-21.21c-5.859-5.859-15.351-5.859-21.21 0s-5.859 15.351 0 21.21l21.21 21.21c5.859 5.859 15.351 5.859 21.21 0s5.859-15.352 0-21.21z" data-original="#000000" class="active-path" data-old_color="#000000"/>
  <path d="M408.823 344.173c-5.859-5.859-15.35-5.86-21.21 0l-21.21 21.21c-5.859 5.859-5.859 15.351 0 21.21s15.351 5.859 21.21 0l21.21-21.21c5.859-5.859 5.859-15.351 0-21.21z" data-original="#000000" class="active-path" data-old_color="#000000" />
</svg>
