<svg xmlns="http://www.w3.org/2000/svg" width="110" height="110" viewBox="0 0 110 110">
    <path fill="#FFF" fill-rule="evenodd" d="M78.863 88.42c-15.726-3.398-32.002-3.398-47.724 0-5.217 1.127-10.639-2.805-9.99-8.21C22.632 66.914 36.438 54.394 55 54.445c18.558-.051 32.367 12.469 33.852 25.763.648 5.406-4.777 9.338-9.99 8.211zm-59.05-50.286l5.555-5.555 5.08 5.08 5.079-5.08 5.555 5.555-5.08 5.08 5.08 5.08-5.555 5.555-5.08-5.08-5.08 5.08-5.554-5.555 5.08-5.08-5.08-5.08zm47.142 0l5.555-5.555 5.08 5.08 5.08-5.08 5.555 5.555-5.08 5.08 5.08 5.08-5.555 5.555-5.08-5.08-5.08 5.08-5.555-5.555 5.08-5.08-5.08-5.08zM93.89 16.111c-21.482-21.482-56.3-21.482-77.782 0-21.478 21.477-21.478 56.3 0 77.781 21.481 21.478 56.3 21.478 77.782 0 21.481-21.481 21.481-56.304 0-77.781z"/>
</svg>
